^C:\USERS\RAINBOWDASH\DOCUMENTS\VISUAL STUDIO 2019\PROJECTS\EXCEPTION\DEBUG\EXCEPTION1.OBJ
C:\USERS\RAINBOWDASH\DOCUMENTS\VISUAL STUDIO 2019\PROJECTS\EXCEPTION\DEBUG\EXCEPTION1.EXE
C:\USERS\RAINBOWDASH\DOCUMENTS\VISUAL STUDIO 2019\PROJECTS\EXCEPTION\DEBUG\EXCEPTION1.ILK
C:\USERS\RAINBOWDASH\DOCUMENTS\VISUAL STUDIO 2019\PROJECTS\EXCEPTION\DEBUG\EXCEPTION1.PDB
